<?xml version="1.0" standalone="no"?>
<!DOCTYPE svg PUBLIC "-//W3C//DTD SVG 20010904//EN"
 "http://www.w3.org/TR/2001/REC-SVG-20010904/DTD/svg10.dtd">
<svg version="1.0" xmlns="http://www.w3.org/2000/svg"
 width="512.000000pt" height="512.000000pt" viewBox="0 0 512.000000 512.000000"
 preserveAspectRatio="xMidYMid meet">
<metadata>
Created by potrace 1.14, written by Peter Selinger 2001-2017
</metadata>
<g transform="translate(0.000000,512.000000) scale(0.100000,-0.100000)"
fill="#000000" stroke="none">
<path d="M4540 4545 c-272 -272 -497 -495 -500 -495 -3 0 -30 20 -60 45 -166
136 -405 194 -620 151 -451 -92 -717 -558 -563 -990 31 -87 61 -142 124 -222
l47 -61 -464 -464 -464 -464 -436 436 -435 435 20 47 c74 172 289 512 450 712
86 106 87 98 -20 90 -662 -49 -817 -65 -872 -85 -117 -44 -136 -66 -435 -519
-151 -229 -283 -434 -293 -456 -25 -54 -25 -156 0 -211 27 -60 82 -117 138
-142 34 -15 152 -38 403 -77 196 -30 358 -55 361 -55 3 0 4 -36 1 -79 -8 -135
-22 -117 545 -688 471 -474 501 -502 552 -518 38 -13 74 -16 127 -13 41 3 74
2 74 -3 0 -4 25 -168 56 -365 60 -386 69 -417 136 -481 74 -71 204 -95 294
-54 76 35 868 566 903 606 41 47 77 123 90 190 6 28 24 239 41 470 l32 420 86
79 c754 686 1123 1398 1238 2394 13 104 18 231 18 437 1 283 0 291 -22 342
-48 105 1 141 -552 -412z"/>
<path d="M575 1674 c-16 -8 -144 -128 -284 -267 -303 -301 -318 -325 -270
-424 33 -69 113 -100 186 -73 32 12 547 521 569 562 20 39 18 107 -6 146 -40
66 -128 91 -195 56z"/>
<path d="M1015 1221 c-16 -10 -249 -239 -517 -507 -525 -527 -510 -510 -494
-598 17 -92 131 -146 214 -102 34 18 995 982 1012 1014 17 35 14 107 -6 141
-38 65 -146 92 -209 52z"/>
<path d="M1501 790 c-27 -6 -91 -65 -303 -277 -148 -147 -276 -280 -284 -295
-61 -116 67 -255 193 -207 32 12 547 520 569 561 22 41 18 109 -8 148 -43 62
-98 85 -167 70z"/>
</g>
</svg>
